Kde vzít otevřená data a jak s nimi pracovat efektivně
…
czsokat <- czso_get_catalogue()
czso_filter_catalogue(czsokat, c("obce", "obyvatel", "2023")) |> 
  select(title, dataset_id, description) |> t()

            [,1]                                                                                                                                                                                                                                                                                                                                                                                   
title       "Pohyb obyvatel - rok 2023"                                                                                                                                                                                                                                                                                                                                                            
dataset_id  "130141r24"                                                                                                                                                                                                                                                                                                                                                                            
description "Datová sada obsahuje statistické údaje o přirozeném i mechanickém pohybu obyvatel, tedy o počtu živě narozených, zemřelých, přistěhovalých a vystěhovalých za obce, správní obvody obcí s rozšířenou působností (SO ORP), okresy, kraje i republiku. Doplněny jsou údaje o přirozeném přírůstku obyvatel, přírůstku stěhováním, celkovém přírůstku, a také o středním stavu obyvatel."

Načteme si data ČSÚ

czso_get_table("130141r24")

# A tibble: 85,306 × 11
   idhod      hodnota vuk     vuk_text stapro_kod vuzemi_cis vuzemi_kod   rok
   <chr>        <dbl> <chr>   <chr>    <chr>      <chr>      <chr>      <int>
 1 1286495326       5 DEM0008 Zemřelí  5393       43         552674      2023
 2 1286494798       2 DEM0008 Zemřelí  5393       43         555835      2023
 3 1286494804       0 DEM0008 Zemřelí  5393       43         558010      2023
 4 1286494806       5 DEM0008 Zemřelí  5393       43         550922      2023
 5 1286495335       3 DEM0008 Zemřelí  5393       43         589128      2023
 6 1286495398      13 DEM0008 Zemřelí  5393       43         597988      2023
 7 1286495010      24 DEM0008 Zemřelí  5393       43         500526      2023
 8 1286495018       2 DEM0008 Zemřelí  5393       43         561282      2023
 9 1286495027       2 DEM0008 Zemřelí  5393       43         560006      2023
10 1286497476       2 DEM0008 Zemřelí  5393       43         551597      2023
# ℹ 85,296 more rows
# ℹ 3 more variables: casref_od <dttm>, casref_do <dttm>, vuzemi_txt <chr>

Načteme číselník

czso_get_codelist(43)

# A tibble: 6,258 × 15
   kodjaz akrcis kodcis chodnota zkrtext text  admplod admnepo obec_ul ob_ul_cor
   <chr>  <chr>  <chr>  <chr>    <chr>   <chr> <chr>   <chr>   <chr>   <chr>    
 1 CS     CISOB  43     500011   Želech… Žele… 2009-0… 9999-0… ano     ne       
 2 CS     CISOB  43     500020   Petrov… Petr… 2010-0… 9999-0… ne      ne       
 3 CS     CISOB  43     500046   Libhošť Libh… 2011-0… 9999-0… ne      ne       
 4 CS     CISOB  43     500062   Krhová  Krho… 2013-0… 9999-0… ano     ne       
 5 CS     CISOB  43     500071   Poličná Poli… 2013-0… 9999-0… ne      ne       
 6 CS     CISOB  43     500101   Bražec  Braž… 2016-0… 9999-0… ne      ne       
 7 CS     CISOB  43     500127   Doupov… Doup… 2016-0… 9999-0… ne      ne       
 8 CS     CISOB  43     500135   Kozlov  Kozl… 2016-0… 9999-0… ne      ne       
 9 CS     CISOB  43     500151   Lubomě… Lubo… 2016-0… 9999-0… ne      ne       
10 CS     CISOB  43     500160   Město … Měst… 2016-0… 9999-0… ano     ne       
# ℹ 6,248 more rows
# ℹ 5 more variables: sm_rozsah <chr>, sm_typ <chr>, kodobce_h <chr>,
#   domin_cobc <chr>, porcobec_o <chr>

Číselník vazeb

czso_get_catalogue(c("vazba", "orp", "obec")) |> select(title, dataset_id)

# A tibble: 3 × 2
  title                                                       dataset_id
  <chr>                                                       <chr>     
1 Vazba mezi číselníky ČSÚ: CISOB (kód 43) - CISORP (kód 65)  cis43vaz65
2 Vazba mezi číselníky ČSÚ: CISORP (kód 65) - CISOB (kód 43)  cis65vaz43
3 Vazba mezi číselníky ČSÚ: CISORP (kód 65) - CISPOU (kód 61) cis65vaz61

czso_get_codelist("cis43vaz65")

# A tibble: 206 × 10
   kodjaz typvaz akrcis1 kodcis1 chodnota1 text1 akrcis2 kodcis2 chodnota2 text2
   <chr>  <chr>  <chr>   <chr>   <chr>     <chr> <chr>   <chr>   <chr>     <chr>
 1 CS     Edita… CISOB   43      500496    Olom… CISORP  65      7107      Olom…
 2 CS     Edita… CISOB   43      503444    Lito… CISORP  65      7105      Lito…
 3 CS     Edita… CISOB   43      505188    Šter… CISORP  65      7110      Šter…
 4 CS     Edita… CISOB   43      505587    Unič… CISORP  65      7112      Unič…
 5 CS     Edita… CISOB   43      505927    Opava CISORP  65      8117      Opava
 6 CS     Edita… CISOB   43      507016    Hluč… CISORP  65      8109      Hluč…
 7 CS     Edita… CISOB   43      507580    Krav… CISORP  65      8113      Krav…
 8 CS     Edita… CISOB   43      511021    Vítk… CISORP  65      8122      Vítk…
 9 CS     Edita… CISOB   43      511382    Přer… CISORP  65      7109      Přer…
10 CS     Edita… CISOB   43      513750    Hran… CISORP  65      7101      Hran…
# ℹ 196 more rows
…
